graficos_con_ggplot2
…
Algo más de dplyr

Puedo seleccionar las columnas que necesito

bicis |>
  select(id_estacion, bicis_disponibles)

## # A tibble: 2,176 × 2
##    id_estacion bicis_disponibles
##          <dbl>             <dbl>
##  1           8                 2
##  2           8                 2
##  3           8                 1
##  4           8                 0
##  5           8                 1
##  6           8                 1
##  7           8                 0
##  8           8                 1
##  9           8                 1
## 10           8                 1
## # ℹ 2,166 more rows

y puedo elegir todas menos la columna hora

bicis |>
  select(!hora)

## # A tibble: 2,176 × 6
##    id_estacion bicis_disponibles bicis_rotas espacios_disponibles espacios_rotos
##          <dbl>             <dbl>       <dbl>                <dbl>          <dbl>
##  1           8                 2           0                   22              0
##  2           8                 2           0                   22              0
##  3           8                 1           0                   23              0
##  4           8                 0           0                   24              0
##  5           8                 1           0                   23              0
##  6           8                 1           0                   23              0
##  7           8                 0           0                   24              0
##  8           8                 1           0                   23              0
##  9           8                 1           0                   23              0
## 10           8                 1           0                   23              0
## # ℹ 2,166 more rows
## # ℹ 1 more variable: tiempo <dttm>

si quiero eliminar varias

bicis |>
  select(-hora, -tiempo)

## # A tibble: 2,176 × 5
##    id_estacion bicis_disponibles bicis_rotas espacios_disponibles espacios_rotos
##          <dbl>             <dbl>       <dbl>                <dbl>          <dbl>
##  1           8                 2           0                   22              0
##  2           8                 2           0                   22              0
##  3           8                 1           0                   23              0
##  4           8                 0           0                   24              0
##  5           8                 1           0                   23              0
##  6           8                 1           0                   23              0
##  7           8                 0           0                   24              0
##  8           8                 1           0                   23              0
##  9           8                 1           0                   23              0
## 10           8                 1           0                   23              0
## # ℹ 2,166 more rows

bicis |> 
  select(-c(hora, tiempo))

## # A tibble: 2,176 × 5
##    id_estacion bicis_disponibles bicis_rotas espacios_disponibles espacios_rotos
##          <dbl>             <dbl>       <dbl>                <dbl>          <dbl>
##  1           8                 2           0                   22              0
##  2           8                 2           0                   22              0
##  3           8                 1           0                   23              0
##  4           8                 0           0                   24              0
##  5           8                 1           0                   23              0
##  6           8                 1           0                   23              0
##  7           8                 0           0                   24              0
##  8           8                 1           0                   23              0
##  9           8                 1           0                   23              0
## 10           8                 1           0                   23              0
## # ℹ 2,166 more rows

Cómo renombrar columnas?

bicis |>
  rename(id = id_estacion)

## # A tibble: 2,176 × 7
##       id bicis_disponibles bicis_rotas espacios_disponibles espacios_rotos
##    <dbl>             <dbl>       <dbl>                <dbl>          <dbl>
##  1     8                 2           0                   22              0
##  2     8                 2           0                   22              0
##  3     8                 1           0                   23              0
##  4     8                 0           0                   24              0
##  5     8                 1           0                   23              0
##  6     8                 1           0                   23              0
##  7     8                 0           0                   24              0
##  8     8                 1           0                   23              0
##  9     8                 1           0                   23              0
## 10     8                 1           0                   23              0
## # ℹ 2,166 more rows
## # ℹ 2 more variables: tiempo <dttm>, hora <dbl>
…
Ordenar filas con arrange()

bicis |>
  arrange(bicis_disponibles)

## # A tibble: 2,176 × 7
##    id_estacion bicis_disponibles bicis_rotas espacios_disponibles espacios_rotos
##          <dbl>             <dbl>       <dbl>                <dbl>          <dbl>
##  1           8                 0           0                   24              0
##  2           8                 0           0                   24              0
##  3           8                 0           0                   24              0
##  4           8                 0           0                   24              0
##  5           8                 0           0                   24              0
##  6           8                 0           0                   24              0
##  7           8                 0           0                   24              0
##  8           8                 0           0                   24              0
##  9           8                 0           0                   24              0
## 10           8                 0           0                   24              0
## # ℹ 2,166 more rows
## # ℹ 2 more variables: tiempo <dttm>, hora <dbl>
…
