uniones
…
## Rows: 107177 Columns: 7
## ── Column specification ────────────────────────────────────────────────────────
## Delimiter: ","
## dbl  (6): id_estacion, bicis_disponibles, bicis_rotas, espacios_disponibles,...
## dttm (1): tiempo
## 
## ℹ Use `spec()` to retrieve the full column specification for this data.
## ℹ Specify the column types or set `show_col_types = FALSE` to quiet this message.

bicis |> 
  group_by(id_estacion) |> 
  summarise(media_disponibles = mean(bicis_disponibles, na.rm = T))

## # A tibble: 399 × 2
##    id_estacion media_disponibles
##          <dbl>             <dbl>
##  1           2             0.863
##  2           3             1.19 
##  3           4             1.38 
##  4           5             0.564
##  5           6             3.42 
##  6           7             0.403
##  7           8             0.883
##  8           9             0.476
##  9          11             1.03 
## 10          12             0.711
## # ℹ 389 more rows
…
